<?xml version="1.0" encoding="UTF-8" standalone="no"?>
<svg
   xmlns:dc="http://purl.org/dc/elements/1.1/"
   xmlns:cc="http://creativecommons.org/ns#"
   xmlns:rdf="http://www.w3.org/1999/02/22-rdf-syntax-ns#"
   xmlns:svg="http://www.w3.org/2000/svg"
   xmlns="http://www.w3.org/2000/svg"
   xmlns:sodipodi="http://sodipodi.sourceforge.net/DTD/sodipodi-0.dtd"
   xmlns:inkscape="http://www.inkscape.org/namespaces/inkscape"
   data-name="Layer 1"
   viewBox="0 0 177.25727 64.501755"
   x="0px"
   y="0px"
   version="1.1"
   id="svg10"
   sodipodi:docname="logOttoGuideLS.svg"
   width="177.25726"
   height="64.501755"
   inkscape:version="0.92.1 r15371"
   inkscape:export-filename="C:\Users\amin\odrive\amin@masterconcepts.net (Google Drive)\Projects\Ken Banks\ottoguide.com WebApp Private\media\images\icons\ottoguide_logo_hz.png"
   inkscape:export-xdpi="600"
   inkscape:export-ydpi="600">
  <metadata
     id="metadata16">
    <rdf:RDF>
      <cc:Work
         rdf:about="">
        <dc:format>image/svg+xml</dc:format>
        <dc:type
           rdf:resource="http://purl.org/dc/dcmitype/StillImage" />
        <dc:title>Artboard 22</dc:title>
      </cc:Work>
    </rdf:RDF>
  </metadata>
  <defs
     id="defs14" />
  <sodipodi:namedview
     pagecolor="#ffffff"
     bordercolor="#666666"
     borderopacity="1"
     objecttolerance="10"
     gridtolerance="10"
     guidetolerance="10"
     inkscape:pageopacity="0"
     inkscape:pageshadow="2"
     inkscape:window-width="1366"
     inkscape:window-height="715"
     id="namedview12"
     showgrid="false"
     fit-margin-top="0"
     fit-margin-left="0"
     fit-margin-right="0"
     fit-margin-bottom="0"
     inkscape:showpageshadow="false"
     inkscape:zoom="2.1154958"
     inkscape:cx="102.05028"
     inkscape:cy="34.449158"
     inkscape:window-x="-8"
     inkscape:window-y="-8"
     inkscape:window-maximized="1"
     inkscape:current-layer="layer3"
     showguides="true"
     inkscape:guide-bbox="true"
     inkscape:snap-text-baseline="true" />
  <title
     id="title2">Artboard 22</title>
  <g
     inkscape:groupmode="layer"
     id="layer3"
     inkscape:label="ottoguide_ls_logo"
     style="display:inline"
     transform="translate(-0.547728)">
    <text
       xml:space="preserve"
       style="font-style:normal;font-weight:normal;font-size:40px;line-height:1.25;font-family:sans-serif;letter-spacing:0px;word-spacing:0px;fill:#0f346c;fill-opacity:1;stroke:none"
       x="133.71675"
       y="50.493912"
       id="text4617"><tspan
         sodipodi:role="line"
         id="tspan4615"
         x="134.04675"
         y="50.493912"
         style="font-style:normal;font-variant:normal;font-weight:normal;font-stretch:normal;font-size:29.33333397px;font-family:'Century Gothic';-inkscape-font-specification:'Century Gothic';font-variant-ligatures:normal;font-variant-caps:normal;font-variant-numeric:normal;font-feature-settings:normal;text-align:center;letter-spacing:0.66000003px;writing-mode:lr-tb;text-anchor:middle;fill:#0f346c;fill-opacity:1">Guide</tspan></text>
    <g
       id="g4530">
      <g
         id="g4521">
        <path
           d="m 67.783598,36.567515 v 1.906461 c 0,2.815266 -2.282224,5.097489 -5.097491,5.097489 h -7.28941 C 49.178339,43.819239 48.023066,34.831769 54.101935,33.498826 L 61.36076,31.62295 c 3.252049,-0.875721 6.444381,1.586935 6.422838,4.95476 z m -4.077993,0 c 0.02806,-0.696647 -0.6358,-1.215281 -1.304957,-1.019498 l -7.258825,1.906461 c -1.359216,0.1768 -1.094148,2.215796 0.265069,2.038996 h 7.24863 c 0.563053,0 1.019498,-0.456445 1.019498,-1.019498 z m -32.919586,1.906461 c 0,2.815266 -2.282224,5.097489 -5.09749,5.097489 h -7.279215 c -2.815266,0 -5.097489,-2.282223 -5.097489,-5.097489 V 36.57771 c -0.01788,-3.356813 3.15746,-5.814164 6.402447,-4.95476 l 7.258825,1.906461 c 2.249814,0.585855 3.818204,2.619728 3.812922,4.944565 z m -4.077992,0 c 0.01398,-0.479875 -0.308721,-0.904482 -0.774818,-1.019498 l -7.258825,-1.906461 c -0.08798,-0.01154 -0.17709,-0.01154 -0.26507,0 -0.563053,0 -1.019498,0.456444 -1.019498,1.019498 v 1.906461 c 0,0.563053 0.456445,1.019498 1.019498,1.019498 h 7.258825 c 0.570999,0.01142 1.040002,-0.448386 1.039888,-1.019498 z"
           id="path4-6"
           inkscape:connector-curvature="0"
           sodipodi:nodetypes="csscccccccccscccsssccccccccssscc"
           style="display:inline;fill:#f26226;fill-opacity:1;stroke:none;stroke-width:1.01949787;stroke-opacity:1" />
        <g
           id="g4553-1"
           transform="matrix(1.0194979,0,0,1.0194979,-1.2333665,-3.168692)"
           style="display:inline;fill:none;fill-opacity:1;stroke:#f26226;stroke-opacity:1">
          <path
             inkscape:connector-curvature="0"
             id="path4483-8"
             d="M 38.099076,48.233247 V 42.289735"
             style="fill:none;fill-opacity:1;stroke:#f26226;stroke-width:4;stroke-linecap:round;stroke-linejoin:miter;stroke-miterlimit:4;stroke-dasharray:none;stroke-opacity:1" />
          <path
             inkscape:connector-curvature="0"
             id="path4483-8-8-7"
             d="M 46.453789,39.922278 H 35.510273"
             style="fill:none;fill-opacity:1;stroke:#f26226;stroke-width:4;stroke-linecap:round;stroke-linejoin:miter;stroke-miterlimit:4;stroke-dasharray:none;stroke-opacity:1" />
          <path
             inkscape:connector-curvature="0"
             id="path4483-5-6"
             d="M 43.864992,48.233247 V 42.289735"
             style="fill:none;fill-opacity:1;stroke:#f26226;stroke-width:4;stroke-linecap:round;stroke-linejoin:miter;stroke-miterlimit:4;stroke-dasharray:none;stroke-opacity:1" />
        </g>
      </g>
      <path
         style="fill:#333333;fill-opacity:1;stroke-width:1.01949787"
         sodipodi:nodetypes="ccccssccczcssssccccccccccccccccccccccccccccccccssscccccsssszssccsscccssscc"
         inkscape:connector-curvature="0"
         id="path4"
         d="m 80.547728,22.294544 v 2.936154 c -0.0586,2.696858 -1.876851,5.036972 -4.475595,5.760163 1.289079,2.68875 1.924835,5.643965 1.855487,8.624953 v 18.881101 c 0,3.316382 -2.688461,6.004842 -6.004843,6.004842 h -5.09749 c -3.312401,-0.0056 -5.994653,-2.692437 -5.994648,-6.004842 v -0.937938 c 0,0 -13.37507,4.200123 -20.277813,4.200123 -6.902743,0 -20.277814,-4.200123 -20.277814,-4.200123 v 0.937938 c 0,3.316382 -2.688459,6.004842 -6.004842,6.004842 H 9.17268 c -3.316383,0 -6.004842,-2.68846 -6.004842,-6.004842 V 39.544449 C 3.100238,36.573451 3.736028,33.628563 5.023324,30.950081 2.42458,30.22689 0.606331,27.886776 0.547728,25.189918 v -2.936154 c 0.07997,-3.184711 2.63692,-5.750622 5.821333,-5.841723 h 1.529247 c 1.225294,0.01926 2.429363,0.322891 3.517268,0.886964 1.38486,-3.528656 3.055594,-6.938316 4.995539,-10.194979 2.480851,-3.430527 6.278371,-5.672837 10.480439,-6.188352 4.515529,-0.696202 9.08327,-0.996398 13.651077,-0.897159 4.567808,-0.09929 9.135552,0.200905 13.651076,0.897159 4.198719,0.510533 7.995675,2.745123 10.480439,6.167962 1.93895,3.257203 3.609644,6.66678 4.995541,10.194979 1.081692,-0.559928 2.27897,-0.86012 3.496877,-0.876769 h 1.559832 c 3.192104,0.09157 5.752044,2.669448 5.821332,5.862113 z m -4.07799,0.14273 c 0.01135,-1.049602 -0.836408,-1.906522 -1.886071,-1.906461 h -1.406908 c -1.163569,0.07085 -2.25679,0.58102 -3.058493,1.427297 -1.045091,0.977525 -2.745699,0.602546 -3.282784,-0.723844 C 65.320222,17.165623 63.468523,13.230336 61.299609,9.469261 59.117883,6.329207 55.967635,5.391269 53.45967,4.98347 49.187571,4.316349 44.865821,4.019591 40.542632,4.096507 36.21072,4.001017 31.878672,4.280722 27.595008,4.932495 25.087043,5.370879 21.936795,6.278232 19.755069,9.418286 17.58582,13.179185 15.734107,17.114501 14.219196,21.183292 13.682111,22.509681 11.981503,22.88466 10.936413,21.907135 10.134708,21.060858 9.041487,20.550688 7.877918,20.479838 H 6.501596 c -1.07435,-0.001 -1.93253,0.894286 -1.886071,1.967631 v 2.691474 c 0,1.126106 0.912889,2.038996 2.038995,2.038996 h 1.896267 c 1.680224,0 2.639333,1.918213 1.631197,3.262393 -0.18351,0.237883 -0.356825,0.479164 -0.519944,0.723844 -1.641355,2.495319 -2.474323,5.435622 -2.385626,8.421053 v 18.911686 c 0.0056,1.060187 0.866649,1.916671 1.926851,1.916656 h 5.097491 c 1.06417,0 1.926851,-0.862681 1.926851,-1.926851 v -2.966739 c 0,-1.126106 0.91289,-2.038996 2.038996,-2.038996 0,0 14.730133,4.200123 22.291321,4.200123 7.561188,0 22.291322,-4.200123 22.291322,-4.200123 1.106633,-0.208512 2.038995,0.91289 2.038995,2.038996 v 2.976934 c -1.6e-5,1.060201 0.856469,1.921241 1.916657,1.926851 h 5.097489 c 1.06417,0 1.926851,-0.862681 1.926851,-1.926851 V 39.554644 c 0.09146,-2.999982 -0.745224,-5.955084 -2.39582,-8.461833 -0.16312,-0.234484 -0.336434,-0.479164 -0.509749,-0.723843 -1.008135,-1.34418 -0.04903,-3.262394 1.631197,-3.262394 h 1.906461 c 1.126106,0 2.038996,-0.91289 2.038996,-2.038995 0,-1.019498 0,-1.875877 -0.03059,-2.62011 z"
         inkscape:export-xdpi="600"
         inkscape:export-ydpi="600" />
    </g>
  </g>
</svg>
