<?xml version="1.0" encoding="UTF-8" standalone="no"?>
<svg
   xmlns:dc="http://purl.org/dc/elements/1.1/"
   xmlns:cc="http://creativecommons.org/ns#"
   xmlns:rdf="http://www.w3.org/1999/02/22-rdf-syntax-ns#"
   xmlns:svg="http://www.w3.org/2000/svg"
   xmlns="http://www.w3.org/2000/svg"
   xmlns:sodipodi="http://sodipodi.sourceforge.net/DTD/sodipodi-0.dtd"
   xmlns:inkscape="http://www.inkscape.org/namespaces/inkscape"
   version="1.1"
   x="0px"
   y="0px"
   viewBox="0 0 100 100"
   xml:space="preserve"
   id="svg12"
   sodipodi:docname="quiz-car-drk.svg"
   width="100"
   height="100"
   inkscape:export-filename="C:\Users\amin\odrive\amin@masterconcepts.net (Google Drive)\Projects\Ken Banks\ottoguide.com WebApp Private\media\images\icons\otto_search_passive.png"
   inkscape:export-xdpi="600.00299"
   inkscape:export-ydpi="600.00299"
   inkscape:version="0.92.4 (f8dce91, 2019-08-02)"
   style="enable-background:new"><metadata
     id="metadata18"><rdf:RDF><cc:Work
         rdf:about=""><dc:format>image/svg+xml</dc:format><dc:type
           rdf:resource="http://purl.org/dc/dcmitype/StillImage" /><dc:title></dc:title></cc:Work></rdf:RDF></metadata><defs
     id="defs16" /><sodipodi:namedview
     pagecolor="#ffffff"
     bordercolor="#666666"
     borderopacity="1"
     objecttolerance="10"
     gridtolerance="10"
     guidetolerance="10"
     inkscape:pageopacity="0"
     inkscape:pageshadow="2"
     inkscape:window-width="1366"
     inkscape:window-height="672"
     id="namedview14"
     showgrid="false"
     fit-margin-top="0"
     fit-margin-left="0"
     fit-margin-right="0"
     fit-margin-bottom="0"
     inkscape:showpageshadow="false"
     showguides="true"
     inkscape:guide-bbox="true"
     inkscape:zoom="2.8284271"
     inkscape:cx="54.755134"
     inkscape:cy="69.238826"
     inkscape:window-x="0"
     inkscape:window-y="27"
     inkscape:window-maximized="1"
     inkscape:current-layer="layer1" /><g
     inkscape:groupmode="layer"
     id="layer1"
     inkscape:label="default"
     style="display:inline"
     transform="translate(1.999999,2.000241)"><g
       style="fill:#375e97;fill-opacity:1;stroke:none;stroke-width:3.31624579;stroke-miterlimit:4;stroke-dasharray:none;stroke-opacity:1"
       transform="matrix(0.7009048,0,0,0.6954525,19.275499,26.566837)"
       id="g890" /><g
       id="g829"><path
         inkscape:connector-curvature="0"
         id="path2533"
         d="m 48.000001,-2.000241 a 50,50 0 0 0 -50,50 50,50 0 0 0 50,50 50,50 0 0 0 50,-50 50,50 0 0 0 -50,-50 z M 24.621095,12.536868 A 23.780878,11.280879 0 0 0 48.000001,21.781009 23.780878,11.280879 0 0 0 71.371095,12.538821 42.5,42.5 0 0 1 90.500001,47.999759 42.5,42.5 0 0 1 71.378907,83.462649 23.780878,11.280879 0 0 0 48.000001,74.218509 23.780878,11.280879 0 0 0 24.628907,83.460699 42.5,42.5 0 0 1 5.500001,47.999759 42.5,42.5 0 0 1 24.621095,12.536868 Z"
         style="display:inline;fill:#333333;fill-opacity:1;stroke-width:3.92837143" /><path
         sodipodi:nodetypes="ccccccc"
         inkscape:connector-curvature="0"
         id="path2028"
         d="M 55.5,6.0994905 53.069925,4.0715209 46.262535,12.238816 42.738522,8.7148007 40.5,10.953327 l 5.974664,5.97467 z"
         style="display:inline;fill:#999999;fill-opacity:1;stroke:none;stroke-width:1.58311498" /><path
         sodipodi:nodetypes="ccccccccccccc"
         inkscape:connector-curvature="0"
         id="path2024"
         d="m 52.639177,77.999758 -4.639165,4.639195 -4.639189,-4.639179 -2.860799,2.86078 4.639188,4.639223 -4.639212,4.639177 2.860823,2.8608 4.639165,-4.639201 4.639189,4.639189 2.860812,-2.8608 -4.639188,-4.6392 L 55.5,80.860576 Z"
         style="display:inline;fill:#999999;fill-opacity:1;stroke:none;stroke-width:2.02319551;stroke-opacity:1" /><g
         id="g834"><path
           inkscape:connector-curvature="0"
           d="m 75.500001,41.208026 v 2.002903 c -0.04029,1.839667 -1.290336,3.435981 -3.076972,3.929307 0.886241,1.834136 1.323324,3.850042 1.275647,5.883529 v 12.87978 c 0,2.262276 -1.848317,4.096215 -4.12833,4.096215 h -3.504524 c -2.277276,-0.0038 -4.121324,-1.836652 -4.12132,-4.096215 v -0.639816 c 0,0 -9.195361,2.865122 -13.940997,2.865122 -4.745635,0 -13.940996,-2.865122 -13.940996,-2.865122 v 0.639816 c 0,2.262276 -1.848316,4.096215 -4.128329,4.096215 h -3.504524 c -2.280014,0 -4.12833,-1.833939 -4.12833,-4.096215 V 52.975083 c -0.04647,-2.026672 0.390631,-4.035534 1.275647,-5.862665 -1.786636,-0.493326 -3.036682,-2.08964 -3.076972,-3.929307 v -2.002903 c 0.05498,-2.172457 1.812883,-3.922798 4.002166,-3.984943 h 1.051358 c 0.842389,0.01314 1.670187,0.220261 2.418121,0.605044 0.952092,-2.407079 2.100721,-4.732986 3.434433,-6.954525 1.705585,-2.34014 4.31638,-3.869737 7.205302,-4.221396 3.104426,-0.474916 6.244748,-0.679695 9.385115,-0.611999 3.140368,-0.06773 6.280692,0.137048 9.385115,0.611999 2.886619,0.348261 5.497027,1.872591 7.205302,4.207487 1.333028,2.221908 2.48163,4.547757 3.434434,6.954525 0.743663,-0.381956 1.566792,-0.586732 2.404103,-0.598089 h 1.072385 c 2.194571,0.06246 3.95453,1.820969 4.002166,3.998851 z m -47.461195,9.569208 v 1.308959 c 0,1.932934 1.566951,3.499886 3.499884,3.499886 h 5.00484 c 4.269465,0.170119 5.062666,-6.000591 0.888974,-6.915778 l -4.983843,-1.287958 c -2.232824,-0.601261 -4.424648,1.089575 -4.409855,3.401891 z m 19.961316,-2.831901 c -3.182887,0 -9.527586,0.655988 -9.527586,0.655988 1.184915,0.496439 1.872759,1.453125 2.122653,2.512236 0,0 1.628045,-0.163415 3.469003,-0.306512 v 7.089831 c 0,0 0.0012,1.329163 1.329164,1.329163 1.328003,0 1.329163,-1.329163 1.329163,-1.329163 v -7.250245 c 0.440066,-0.01843 0.91847,-0.04583 1.277603,-0.04583 0.359131,0 0.837536,0.02741 1.277601,0.04583 v 7.250245 c 0,0 8.94e-4,1.329163 1.329164,1.329163 1.328268,0 1.329164,-1.329163 1.329164,-1.329163 v -7.089831 c 1.840959,0.143103 3.466139,0.306512 3.466139,0.306512 0.249893,-1.059121 0.937735,-2.015793 2.122652,-2.512236 0,0 -6.341833,-0.655988 -9.52472,-0.655988 z m 19.961074,2.831901 v 0.007 c 0.01479,-2.312316 -2.177032,-4.003153 -4.409856,-3.401891 l -4.983843,1.287893 c -4.17369,0.915187 -3.380489,7.085962 0.888975,6.915842 h 5.004839 c 1.932935,0 3.499885,-1.566951 3.499885,-3.499885 z"
           style="fill:#375e97;fill-opacity:1;stroke:none;stroke-width:2.31531429;stroke-miterlimit:4;stroke-dasharray:none;stroke-opacity:1"
           id="path888" /><path
           id="path830"
           style="fill:#ffffff;fill-opacity:1;stroke:none;stroke-width:2.31531429;stroke-miterlimit:4;stroke-dasharray:none;stroke-opacity:1"
           d="m 28.038806,50.784234 c -0.01479,-2.312316 2.177031,-4.003152 4.409855,-3.401891 l 4.983843,1.287958 c 4.173692,0.915187 3.380491,7.085897 -0.888974,6.915778 h -5.00484 c -1.932933,0 -3.499884,-1.566952 -3.499884,-3.499886 v -1.308959 z m 29.486036,-2.182913 c -1.184917,0.496443 -1.872759,1.453115 -2.122652,2.512236 0,0 -1.62518,-0.163409 -3.466139,-0.306512 v 7.089831 c 0,0 -8.96e-4,1.329163 -1.329164,1.329163 -1.32827,0 -1.329164,-1.329163 -1.329164,-1.329163 v -7.250245 c -0.440065,-0.01842 -0.91847,-0.04583 -1.277601,-0.04583 -0.359133,0 -0.837537,0.0274 -1.277603,0.04583 v 7.250245 c 0,0 -0.0012,1.329163 -1.329163,1.329163 -1.327964,0 -1.329164,-1.329163 -1.329164,-1.329163 v -7.089831 c -1.840958,0.143097 -3.469003,0.306512 -3.469003,0.306512 -0.249894,-1.059111 -0.937738,-2.015797 -2.122653,-2.512236 0,0 6.344699,-0.655988 9.527586,-0.655988 3.182887,0 9.52472,0.655988 9.52472,0.655988 z m 10.436354,3.484872 c 0,1.932934 -1.56695,3.499885 -3.499885,3.499885 h -5.004839 c -4.269464,0.17012 -5.062665,-6.000655 -0.888975,-6.915842 l 4.983843,-1.287893 c 2.232824,-0.601262 4.424646,1.089575 4.409856,3.401891 v -0.007 z"
           inkscape:connector-curvature="0"
           sodipodi:nodetypes="ccccssccccccsccsccsccccscsscccccs" /></g><path
         style="display:inline;fill:#999999;fill-opacity:1;stroke:none;stroke-width:2.02319551;stroke-opacity:1"
         d="m 1.749971,52.733629 3.765651,-3.768202 0.2774925,-5.99235 -4.0431135,4.038952 -3.75,-3.74614 v 5.71517 z"
         id="path870"
         inkscape:connector-curvature="0"
         sodipodi:nodetypes="ccccccc" /><path
         sodipodi:nodetypes="ccccccc"
         inkscape:connector-curvature="0"
         id="path882"
         d="m 94.250031,43.265894 -3.763005,3.759123 -0.286008,6.007283 4.048983,-4.044806 3.75,3.746131 v -5.715163 z"
         style="display:inline;fill:#999999;fill-opacity:1;stroke:none;stroke-width:2.02319551;stroke-opacity:1" /></g></g></svg>